<svg width="20" height="20" viewBox="0 0 20 20" fill="none" xmlns="http://www.w3.org/2000/svg">
<path d="M16 16C14.9 16 14 16.9 14 18C14 19.1 14.9 20 16 20C17.1 20 18 19.1 18 18C18 16.9 17.1 16 16 16Z" fill="#076CB5"/>
<path d="M6 16C4.9 16 4 16.9 4 18C4 19.1 4.9 20 6 20C7.1 20 8 19.1 8 18C8 16.9 7.1 16 6 16Z" fill="#076CB5"/>
<path d="M5.97905 12.583L5.95 12.6379V12.7V12.8C5.95 12.9313 6.01314 13.0417 6.08572 13.1143C6.15831 13.1869 6.26869 13.25 6.4 13.25H17.75V14.75H6.2C5.20859 14.75 4.34203 14.0312 4.25004 13.1874C4.25211 12.8358 4.34049 12.4792 4.52181 12.1154L5.81982 9.71907L5.88022 9.60757L5.82593 9.49298L2.22593 1.89298L2.15821 1.75H2H0.25V0.25H3.13835L3.97202 2.10259L4.03835 2.25H4.2H17.4V2.25028L17.4119 2.24972C17.9014 2.22641 18.2591 2.31468 18.516 2.45755C18.7712 2.59949 18.9418 2.80339 19.0465 3.03903C19.2601 3.5195 19.1999 4.13821 18.9784 4.58417L16.086 9.87019C15.7246 10.4075 15.1992 10.75 14.5 10.75H7.1H6.94948L6.87905 10.883L5.97905 12.583ZM5.2 3.75H4.80695L4.97358 4.10599L7.17358 8.80598L7.18155 8.82302L7.19199 8.83867L7.39199 9.13867L7.4662 9.25H7.6H14.6H14.7465L14.8181 9.12215L17.6181 4.12215L17.8265 3.75H17.4H5.2Z" fill="#076CB5" stroke="#076CB5" stroke-width="0.5"/>
</svg>
