<svg width="13" height="14" viewBox="0 0 13 14" fill="none" xmlns="http://www.w3.org/2000/svg">
<path d="M5.36117 6.11765H6.47426C7.51459 6.11765 8.29303 5.95166 8.80956 5.6197C9.32609 5.28181 9.58435 4.79275 9.58435 4.15253C9.58435 3.50638 9.3661 3.02918 8.92959 2.72093C8.50037 2.41268 7.82378 2.25855 6.89985 2.25855H5.36117V6.11765ZM13 4.05472C13 5.45372 12.4616 6.52371 11.3849 7.26471C10.3155 8.0057 8.79137 8.3762 6.81255 8.3762H5.36117V14H1.97826V0H7.07445C9.00962 0 10.4792 0.340857 11.4831 1.02257C12.4944 1.69836 13 2.70907 13 4.05472Z" fill="#076CB5"/>
<path d="M0 9.92727H9.8913V11.4545H0V9.92727Z" fill="#076CB5"/>
</svg>
